A Simple Wrapper for lsoda — solve_ode • BIDD Modelling Course
…
##Time for model to run over
tbegin = 0
tend = 50
times <- seq(tbegin, tend, 1)

##Vectorise input
parameters <- as.matrix(c(beta = beta))
inits <- as.matrix(c(S = S_0, I = I_0))

solve_ode(model = SI_ode, inits, parameters, times, as.data.frame = TRUE)
#> # A tibble: 51 x 3
#>     time      S        I
#>    <dbl>  <dbl>    <dbl>
#>  1     0 99999      1   
#>  2     1 99997.     3.00
#>  3     2 99991.     9.02
#>  4     3 99973.    27.1 
#>  5     4 99919.    81.4 
#>  6     5 99756.   244.  
#>  7     6 99270.   730.  
#>  8     7 97839.  2161.  
#>  9     8 93778.  6222.  
#> 10     9 83382. 16618.  
#> # … with 41 more rows
…
